{
  "title": "Ad Personalization Survey",
  "showQuestionNumbers": "off",
  "triggers": [
    {
      "type": "complete",
      "expression": "{consent} = 'No'"
    }
  ],
  "pages": [
    {
      "elements": [
        {
          "type": "panel",
          "elements": [
            {
              "type": "html",
              "name": "consentform",
              "html": "<article>  <h1 style=\"text-align: center\">    Invitation to be a Part of a Research Study  </h1>  <h4>    Principal Investigator: Benjamin VanderSloot, Ph.D.<br />Study Sponsor:    University of Detroit Professor's Union  </h4>  <div>    <p>      The purpose of this study is to investigate your reactions to the      inferences made by Google about your interests based on your use of the      site which are referred to as \"ad personalization.\" This will require      you to submit your ad settings to our study and answer survey questions      based on how accurately you think certain inferences made are to you and      your use of the site.<br /><br />Your participation in the study is      completely voluntary and you can stop your participation at any time, even      after you have already submitted your ad settings, without any penalty or      loss. This survey should take you 15-20 minutes. You will be one of about      100 participants.<br /><br />This project is unlikely to have more than      minimal risk. The study team does not foresee or anticipate any risk      greater than that encountered in your routine daily activities.<br /><br />All      of your responses will be kept anonymous beyond the demographic      questions.<br /><br />Some people who are part of this study may receive      the benefit of better understanding their ad personalization profile and      changing their targeted advertising preferences to more closely reflect      their desires.<br /><br />The study is paid for by the University of      Detroit Mercy and, therefore, there will be no cost to you aside from your      time to retrieve and upload your ad settings and answer the survey      questions<br /><br />If you are part of this study, you will receive no      compensation or payment.<br /><br />You will not be identified in any      reports on this study. Records will be kept confidential to the extent      provided by federal, state, and local law. However, the Institutional      Review Board, the sponsor of the study, or university and government      officials responsible for monitoring this study may inspect these      records.<br /><br />Since this study will collect data from you, you      should be aware that the data will not be used for commercial profit.<br /><br />If      significant new knowledge is obtained during the course of this research      which may relate to your willingness to continue to be involved in this      study, you will be informed of this knowledge.<br /><br />Should you have      questions regarding your rights as a research participant, or wish to      obtain information, ask questions, or discuss with someone other than the      researcher(s), please contact the Institutional Review Board at: Michelle      A. Wheater, Ph.D., Professor of Integrated Biomedical Sciences, School of      Dentistry, Room 430, 2700 Martin Luther King Jr. Blvd, Detroit, MI 48208,      (313) 494-6634, wheatemi@udmercy.edu.<br /> <br /> The Principal Investigator      (Benjamin VanderSloot, Ph.D., Assistant Professor) can be reached at      313-993-1943. <br /><br />One copy of this document will be kept together      with the research records of this study.    </p>  </div></article>"
            }
          ]
        },
        {
          "type": "radiogroup",
          "name": "consent",
          "isRequired": true,
          "title": "I have read (or been informed of) the information given above. Benjamin Vandersloot has offered to answer any questions I have concerning the study. I agree and give my consent to be a part of this study. ",
          "colCount": 0,
          "choices": ["Yes", "No"]
        }
      ]
    },
    {
      "questions": [
        {
          "type": "dropdown",
          "name": "gender",
          "title": "To which gender do you most identify?",
          "isRequired": true,
          "hasOther": true,
          "choices": ["Male", "Female", "Prefer not to say"],
          "otherText": "Other (Please specify)"
        },
        {
          "type": "dropdown",
          "name": "education",
          "title": "What is the highest degree or level of education you have completed?",
          "isRequired": true,
          "choices": [
            "None or grades 1-8",
            "Some high school",
            "High school graduate, diploma or GED certificate",
            "Technical, trade, or vocational school",
            "Some college",
            "Associate degree",
            "Bachelor's degree",
            "Some postgraduate or professional education, no postgraduate degree",
            "Postgraduate or professional degree, including master's, doctorate, medical, or law degree'"
          ]
        },
        {
          "type": "dropdown",
          "name": "income",
          "title": "What was your total household income before taxes in the last year?",
          "isRequired": true,
          "choices": [
            "Less than $25,000",
            "$25,000 to $49,999",
            "$50,000 to $74,999",
            "$75,000 to $99,999",
            "$100,000 to $149,999",
            "$150,000 to $200,000",
            "$200,000 or more"
          ]
        },
        {
          "type": "dropdown",
          "name": "ethnicity",
          "title": "Are you of Hispanic, Latino, or Spanish origin?",
          "isRequired": true,
          "choices": ["Yes", "No"]
        },
        {
          "type": "checkbox",
          "name": "race",
          "title": "Which of the following best describes you? Select all that apply",
          "isRequired": true,
          "colCount": 1,
          "hasOther": true,
          "choices": [
            "White",
            "Black or African American",
            "Asian",
            "American Indian or Alaska Native",
            "Middle Eastern or North African",
            "Native Hawaiian or Other Pacific Islander"
          ],
          "otherText": "Other (Please specify)"
        },
        {
          "type": "dropdown",
          "name": "employment",
          "title": "What is your current employment status?",
          "isRequired": true,
          "hasOther": true,
          "choices": [
            "Employed full time",
            "Employed part time",
            "Unemployed looking for work",
            "Unemployed not looking for work",
            "Retired",
            "Student",
            "Unable to work"
          ],
          "otherText": "Other (Please specify)"
        },
        {
          "type": "dropdown",
          "name": "tech",
          "title": "Have you ever received formal training in computer science, software engineering, IT, computer networks, or a related technical field?",
          "isRequired": true,
          "choices": ["Yes", "No"]
        }
      ]
    },
    {
      "elements": [
        {
          "type": "radiogroup",
          "name": "ever seen",
          "isRequired": true,
          "title": "Have you ever seen your Google Ad Settings page before?",
          "colCount": 1,
          "choices": [
            "Yes, I have seen it before.",
            "No, I have not seen it before.",
            "I'm not sure."
          ]
        },
        {
          "type": "panel",
          "elements": [
            {
              "type": "html",
              "name": "instructions",
              "html": "<article>     <h1 style='text-align:center'>     Instructions for Uploading Your Ad Personalization Settings     </h1>     <div>     <ol type='1'>     <li>     Go to      <a href='https://adssettings.google.com' target='_blank'>     adssettings.google.com     </a>     to open the Google Ad Settings web page. Log in to Google if you are not already. You should be directed to the Ad Settings page as shown below.     </br>     </br>     <img src='../img/settingspage.png' alt='Ads Settings Page Screenshot' width='30%'>     </li>     </br>     <li>Once you are brought to this web page, you can either right click on the margins of the page and select \"Save As...\", or go into the File menu and select \"Save As...\".     </br>     </br>     <img src='../img/saveas.png' alt='Save Demonstration' width='30%'>     </li>     </br>     <li>     Save the file to a location on your device that you can easily navigate to such as your Downloads folder.     </br>     </br>     <img src='../img/savelocation.png' alt='Save Location Demonstration' width='30%'>     </li>     </br>     <li>     Upload the file below by clicking \"Choose file\", locating the page you just saved, selecting it, and clicking \"Open\" before continuing to the next page. The file you just saved should be an HTML file.   </li>     </ol>     </div>     </article>"
            }
          ]
        },
        {
          "type": "file",
          "title": "Upload your ad settings below",
          "name": "prefs",
          "isRequired": true,
          "storeDataAsText": false,
          "allowImagesPreview": false,
          "showPreview": true,
          "maxSize": 50000000
        }
      ]
    },
    {
      "name": "preeval",
      "questions": [
    	{
          "type": "matrix",
          "name": "preference action",
          "isRequired": true,
          "title": "Please indicate if you agree or disagree with the following statements",
          "columns": [
            {
              "value": 1,
              "text": "Strongly Disagree"
            },
            {
              "value": 2,
              "text": "Disagree"
            },
            {
              "value": 3,
              "text": "Somewhat Disagree"
            },
            {
              "value": 4,
              "text": "Neutral"
            },
            {
              "value": 5,
              "text": "Somewhat Agree"
            },
            {
              "value": 6,
              "text": "Agree"
            },
            {
              "value": 7,
              "text": "Strongly Agree"
            }
          ],
          "rows": [
            {
              "value": "preference",
              "text": "I would like to stop Google from targeting ads based on what it believes about me."
            },
            {
              "value": "action",
              "text": "I have taken action to stop Google targeting ads based on what it believes about me."
            }
          ]
		},
		{
          "type": "radiogroup",
          "name": "toggle",
          "isRequired": true,
          "title": "Do you think the page you just visited said that Google can use your profile to target you?",
          "colCount": 0,
          "choices": ["Yes", "No"]
        }
      ]
    },
    {
      "name": "information2",
      "questions": [
        {
          "type": "panel",
          "elements": [
            {
              "type": "html",
              "name": "instructions",
              "html": "<article>     <h1 style='text-align:center'>     Now we will run through your thoughts on 12 of your preferences.     </h1>    </article>"
            }
          ]
		}
	  ]
	},
    {
      "name": "property1",
      "title": "Google thinks that you are interested in: ",
      "questions": [
        {
          "type": "html",
          "name": "label",
          "html": "example"
        },
        {
          "type": "matrix",
          "name": "property1 matrix",
          "isRequired": true,
          "title": "Please indicate if you agree or disagree with the following statements",
          "columns": [
            {
              "value": 1,
              "text": "Strongly Disagree"
            },
            {
              "value": 2,
              "text": "Disagree"
            },
            {
              "value": 3,
              "text": "Somewhat Disagree"
            },
            {
              "value": 4,
              "text": "Neutral"
            },
            {
              "value": 5,
              "text": "Somewhat Agree"
            },
            {
              "value": 6,
              "text": "Agree"
            },
            {
              "value": 7,
              "text": "Strongly Agree"
            }
          ],
          "rows": [
            {
              "value": "who i am",
              "text": "This inference is relevant to who I am as a person."
            },
            {
              "value": "everyday activities",
              "text": "This inference is an accurate description of my everyday activities."
            },
            {
              "value": "association makes sense",
              "text": "It makes sense that this inference is associated with me."
            }
          ]
        }
      ]
    },
    {
      "name": "property2",
      "title": "Google thinks that you are interested in: ",
      "questions": [
        {
          "type": "html",
          "name": "label",
          "html": "example"
        },
        {
          "type": "matrix",
          "name": "property2 matrix",
          "isRequired": true,
          "title": "Please indicate if you agree or disagree with the following statements",
          "columns": [
            {
              "value": 1,
              "text": "Strongly Disagree"
            },
            {
              "value": 2,
              "text": "Disagree"
            },
            {
              "value": 3,
              "text": "Somewhat Disagree"
            },
            {
              "value": 4,
              "text": "Neutral"
            },
            {
              "value": 5,
              "text": "Somewhat Agree"
            },
            {
              "value": 6,
              "text": "Agree"
            },
            {
              "value": 7,
              "text": "Strongly Agree"
            }
          ],
          "rows": [
            {
              "value": "who i am",
              "text": "This inference is relevant to who I am as a person."
            },
            {
              "value": "everyday activities",
              "text": "This inference is an accurate description of my everyday activities."
            },
            {
              "value": "association makes sense",
              "text": "It makes sense that this inference is associated with me."
            }
          ]
        }
      ]
    },
    {
      "name": "property3",
      "title": "Google thinks that you are interested in: ",
      "questions": [
        {
          "type": "html",
          "name": "label",
          "html": "example"
        },
        {
          "type": "matrix",
          "name": "property3 matrix",
          "isRequired": true,
          "title": "Please indicate if you agree or disagree with the following statements",
          "columns": [
            {
              "value": 1,
              "text": "Strongly Disagree"
            },
            {
              "value": 2,
              "text": "Disagree"
            },
            {
              "value": 3,
              "text": "Somewhat Disagree"
            },
            {
              "value": 4,
              "text": "Neutral"
            },
            {
              "value": 5,
              "text": "Somewhat Agree"
            },
            {
              "value": 6,
              "text": "Agree"
            },
            {
              "value": 7,
              "text": "Strongly Agree"
            }
          ],
          "rows": [
            {
              "value": "who i am",
              "text": "This inference is relevant to who I am as a person."
            },
            {
              "value": "everyday activities",
              "text": "This inference is an accurate description of my everyday activities."
            },
            {
              "value": "association makes sense",
              "text": "It makes sense that this inference is associated with me."
            }
          ]
        }
      ]
    },
    {
      "name": "property4",
      "title": "Google thinks that you are interested in: ",
      "questions": [
        {
          "type": "html",
          "name": "label",
          "html": "example"
        },
        {
          "type": "matrix",
          "name": "property4 matrix",
          "isRequired": true,
          "title": "Please indicate if you agree or disagree with the following statements",
          "columns": [
            {
              "value": 1,
              "text": "Strongly Disagree"
            },
            {
              "value": 2,
              "text": "Disagree"
            },
            {
              "value": 3,
              "text": "Somewhat Disagree"
            },
            {
              "value": 4,
              "text": "Neutral"
            },
            {
              "value": 5,
              "text": "Somewhat Agree"
            },
            {
              "value": 6,
              "text": "Agree"
            },
            {
              "value": 7,
              "text": "Strongly Agree"
            }
          ],
          "rows": [
            {
              "value": "who i am",
              "text": "This inference is relevant to who I am as a person."
            },
            {
              "value": "everyday activities",
              "text": "This inference is an accurate description of my everyday activities."
            },
            {
              "value": "association makes sense",
              "text": "It makes sense that this inference is associated with me."
            }
          ]
        }
      ]
    },
    {
      "name": "property5",
      "title": "Google thinks that you are interested in: ",
      "questions": [
        {
          "type": "html",
          "name": "label",
          "html": "example"
        },
        {
          "type": "matrix",
          "name": "property5 matrix",
          "isRequired": true,
          "title": "Please indicate if you agree or disagree with the following statements",
          "columns": [
            {
              "value": 1,
              "text": "Strongly Disagree"
            },
            {
              "value": 2,
              "text": "Disagree"
            },
            {
              "value": 3,
              "text": "Somewhat Disagree"
            },
            {
              "value": 4,
              "text": "Neutral"
            },
            {
              "value": 5,
              "text": "Somewhat Agree"
            },
            {
              "value": 6,
              "text": "Agree"
            },
            {
              "value": 7,
              "text": "Strongly Agree"
            }
          ],
          "rows": [
            {
              "value": "who i am",
              "text": "This inference is relevant to who I am as a person."
            },
            {
              "value": "everyday activities",
              "text": "This inference is an accurate description of my everyday activities."
            },
            {
              "value": "association makes sense",
              "text": "It makes sense that this inference is associated with me."
            }
          ]
        }
      ]
    },
    {
      "name": "property6",
      "title": "Google thinks that you are interested in: ",
      "questions": [
        {
          "type": "html",
          "name": "label",
          "html": "example"
        },
        {
          "type": "matrix",
          "name": "property6 matrix",
          "isRequired": true,
          "title": "Please indicate if you agree or disagree with the following statements",
          "columns": [
            {
              "value": 1,
              "text": "Strongly Disagree"
            },
            {
              "value": 2,
              "text": "Disagree"
            },
            {
              "value": 3,
              "text": "Somewhat Disagree"
            },
            {
              "value": 4,
              "text": "Neutral"
            },
            {
              "value": 5,
              "text": "Somewhat Agree"
            },
            {
              "value": 6,
              "text": "Agree"
            },
            {
              "value": 7,
              "text": "Strongly Agree"
            }
          ],
          "rows": [
            {
              "value": "who i am",
              "text": "This inference is relevant to who I am as a person."
            },
            {
              "value": "everyday activities",
              "text": "This inference is an accurate description of my everyday activities."
            },
            {
              "value": "association makes sense",
              "text": "It makes sense that this inference is associated with me."
            }
          ]
        }
      ]
    },
    {
      "name": "attentioncheck",
      "questions": [
        {
          "type": "matrix",
          "name": "attention",
          "isRequired": true,
          "title": "To help us monitor the quality of our data,",
          "columns": [
            {
              "value": 1,
              "text": "Strongly Disagree"
            },
            {
              "value": 2,
              "text": "Disagree"
            },
            {
              "value": 3,
              "text": "Somewhat Disagree"
            },
            {
              "value": 4,
              "text": "Neutral"
            },
            {
              "value": 5,
              "text": "Somewhat Agree"
            },
            {
              "value": 6,
              "text": "Agree"
            },
            {
              "value": 7,
              "text": "Strongly Agree"
            }
          ],
          "rows": [
            {
              "value": "attention1",
              "text": "Please select \"Somewhat Disagree\" from the options to the right."
            },
            {
              "value": "attention2",
              "text": "Please select \"Strongly Agree\" from the options to the right."
            }
          ]
        },
        {
          "type": "radiogroup",
          "name": "attention3",
          "isRequired": true,
          "title": "Which website did you save a webpage from earlier in this survey?",
          "colCount": 1,
          "choices": ["Facebook", "Instagram", "Twitter", "Reddit", "Google"]
        }
      ]
    },
    {
      "name": "property7",
      "title": "Google thinks that you are interested in: ",
      "questions": [
        {
          "type": "html",
          "name": "label",
          "html": "example"
        },
        {
          "type": "matrix",
          "name": "property7 matrix",
          "isRequired": true,
          "title": "Please indicate if you agree or disagree with the following statements",
          "columns": [
            {
              "value": 1,
              "text": "Strongly Disagree"
            },
            {
              "value": 2,
              "text": "Disagree"
            },
            {
              "value": 3,
              "text": "Somewhat Disagree"
            },
            {
              "value": 4,
              "text": "Neutral"
            },
            {
              "value": 5,
              "text": "Somewhat Agree"
            },
            {
              "value": 6,
              "text": "Agree"
            },
            {
              "value": 7,
              "text": "Strongly Agree"
            }
          ],
          "rows": [
            {
              "value": "who i am",
              "text": "This inference is relevant to who I am as a person."
            },
            {
              "value": "everyday activities",
              "text": "This inference is an accurate description of my everyday activities."
            },
            {
              "value": "association makes sense",
              "text": "It makes sense that this inference is associated with me."
            }
          ]
        }
      ]
    },
    {
      "name": "property8",
      "title": "Google thinks that you are interested in: ",
      "questions": [
        {
          "type": "html",
          "name": "label",
          "html": "example"
        },
        {
          "type": "matrix",
          "name": "property8 matrix",
          "isRequired": true,
          "title": "Please indicate if you agree or disagree with the following statements",
          "columns": [
            {
              "value": 1,
              "text": "Strongly Disagree"
            },
            {
              "value": 2,
              "text": "Disagree"
            },
            {
              "value": 3,
              "text": "Somewhat Disagree"
            },
            {
              "value": 4,
              "text": "Neutral"
            },
            {
              "value": 5,
              "text": "Somewhat Agree"
            },
            {
              "value": 6,
              "text": "Agree"
            },
            {
              "value": 7,
              "text": "Strongly Agree"
            }
          ],
          "rows": [
            {
              "value": "who i am",
              "text": "This inference is relevant to who I am as a person."
            },
            {
              "value": "everyday activities",
              "text": "This inference is an accurate description of my everyday activities."
            },
            {
              "value": "association makes sense",
              "text": "It makes sense that this inference is associated with me."
            }
          ]
        }
      ]
    },
    {
      "name": "property9",
      "title": "Google thinks that you are interested in: ",
      "questions": [
        {
          "type": "html",
          "name": "label",
          "html": "example"
        },
        {
          "type": "matrix",
          "name": "property9 matrix",
          "isRequired": true,
          "title": "Please indicate if you agree or disagree with the following statements",
          "columns": [
            {
              "value": 1,
              "text": "Strongly Disagree"
            },
            {
              "value": 2,
              "text": "Disagree"
            },
            {
              "value": 3,
              "text": "Somewhat Disagree"
            },
            {
              "value": 4,
              "text": "Neutral"
            },
            {
              "value": 5,
              "text": "Somewhat Agree"
            },
            {
              "value": 6,
              "text": "Agree"
            },
            {
              "value": 7,
              "text": "Strongly Agree"
            }
          ],
          "rows": [
            {
              "value": "who i am",
              "text": "This inference is relevant to who I am as a person."
            },
            {
              "value": "everyday activities",
              "text": "This inference is an accurate description of my everyday activities."
            },
            {
              "value": "association makes sense",
              "text": "It makes sense that this inference is associated with me."
            }
          ]
        }
      ]
    },
    {
      "name": "property10",
      "title": "Google thinks that you are interested in: ",
      "questions": [
        {
          "type": "html",
          "name": "label",
          "html": "example"
        },
        {
          "type": "matrix",
          "name": "property10 matrix",
          "isRequired": true,
          "title": "Please indicate if you agree or disagree with the following statements",
          "columns": [
            {
              "value": 1,
              "text": "Strongly Disagree"
            },
            {
              "value": 2,
              "text": "Disagree"
            },
            {
              "value": 3,
              "text": "Somewhat Disagree"
            },
            {
              "value": 4,
              "text": "Neutral"
            },
            {
              "value": 5,
              "text": "Somewhat Agree"
            },
            {
              "value": 6,
              "text": "Agree"
            },
            {
              "value": 7,
              "text": "Strongly Agree"
            }
          ],
          "rows": [
            {
              "value": "who i am",
              "text": "This inference is relevant to who I am as a person."
            },
            {
              "value": "everyday activities",
              "text": "This inference is an accurate description of my everyday activities."
            },
            {
              "value": "association makes sense",
              "text": "It makes sense that this inference is associated with me."
            }
          ]
        }
      ]
    },
    {
      "name": "property11",
      "title": "Google thinks that you are interested in: ",
      "questions": [
        {
          "type": "html",
          "name": "label",
          "html": "example"
        },
        {
          "type": "matrix",
          "name": "property11 matrix",
          "isRequired": true,
          "title": "Please indicate if you agree or disagree with the following statements",
          "columns": [
            {
              "value": 1,
              "text": "Strongly Disagree"
            },
            {
              "value": 2,
              "text": "Disagree"
            },
            {
              "value": 3,
              "text": "Somewhat Disagree"
            },
            {
              "value": 4,
              "text": "Neutral"
            },
            {
              "value": 5,
              "text": "Somewhat Agree"
            },
            {
              "value": 6,
              "text": "Agree"
            },
            {
              "value": 7,
              "text": "Strongly Agree"
            }
          ],
          "rows": [
            {
              "value": "who i am",
              "text": "This inference is relevant to who I am as a person."
            },
            {
              "value": "everyday activities",
              "text": "This inference is an accurate description of my everyday activities."
            },
            {
              "value": "association makes sense",
              "text": "It makes sense that this inference is associated with me."
            }
          ]
        }
      ]
    },
    {
      "name": "property12",
      "title": "Google thinks that you are interested in: ",
      "questions": [
        {
          "type": "html",
          "name": "label",
          "html": "example"
        },
        {
          "type": "matrix",
          "name": "property12 matrix",
          "isRequired": true,
          "title": "Please indicate if you agree or disagree with the following statements",
          "columns": [
            {
              "value": 1,
              "text": "Strongly Disagree"
            },
            {
              "value": 2,
              "text": "Disagree"
            },
            {
              "value": 3,
              "text": "Somewhat Disagree"
            },
            {
              "value": 4,
              "text": "Neutral"
            },
            {
              "value": 5,
              "text": "Somewhat Agree"
            },
            {
              "value": 6,
              "text": "Agree"
            },
            {
              "value": 7,
              "text": "Strongly Agree"
            }
          ],
          "rows": [
            {
              "value": "who i am",
              "text": "This inference is relevant to who I am as a person."
            },
            {
              "value": "everyday activities",
              "text": "This inference is an accurate description of my everyday activities."
            },
            {
              "value": "association makes sense",
              "text": "It makes sense that this inference is associated with me."
            }
          ]
        }
      ]
    },
    {
      "questions": [
        {
          "type": "radiogroup",
          "name": "last seen",
          "isRequired": true,
          "title": "When was the last time you viewed the Google Ad Settings web page, not including for this survey?",
          "colCount": 1,
          "choices": [
            "Today",
            "Yesterday",
            "Within the past week",
            "Within the past month",
            "More than a month ago",
            "I have never viewed the Google Ad Settings web page before"
          ]
        },
        {
          "type": "radiogroup",
          "name": "adblocker",
          "isRequired": true,
          "title": "Do you use an ad blocker when you browse the web?",
          "colCount": 1,
          "choices": ["Yes", "No", "I don't know."]
        },
        {
          "type": "checkbox",
          "name": "security experience",
          "isRequired": true,
          "title": "Have you ever had one of the following experiences? Select all that apply.",
          "colCount": 1,
          "choices": [
            "Fell victim to a phising email message or other scam email",
            "Received a notification from a company that your information was invovled in a data breach",
            "Had a virus on your computer or mobile device",
            "Someone broke in or hacked your computer, mobile device, or account",
            "Stranger used your credit card number without your knowledge or permission",
            "Identity theft more extensive than use of your credit card number without permission",
            "None of the above"
          ]
        },
        {
          "type": "radiogroup",
          "name": "negative information",
          "isRequired": true,
          "title": "How much negative information have you heard about Google in the past several months?",
          "colCount": 1,
          "choices": [
            "A huge amount",
            "A lot",
            "A moderate amount",
            "A little",
            "None at all"
          ]
        },
        {
          "type": "radiogroup",
          "name": "use frequency",
          "isRequired": true,
          "title": "Has how often you've used Google increased, decreased, or stayed about the same recently?",
          "colCount": 1,
          "choices": [
            "Increased a lot",
            "Increased a little",
            "Stayed about the same",
            "Decreased a little",
            "Decreased a lot"
          ]
        }
      ]
    },
    {
      "questions": [
        {
          "type": "matrix",
          "name": "privacy opinions",
          "isRequired": true,
          "title": "Here are some statements about personal information. From the standpoint of personal privacy, please indicate the extent to which you, as an individual, agree or disagree with each statement.",
          "columns": [
            {
              "value": 1,
              "text": "Strongly Disagree"
            },
            {
              "value": 2,
              "text": "Disagree"
            },
            {
              "value": 3,
              "text": "Somewhat Disagree"
            },
            {
              "value": 4,
              "text": "Neutral"
            },
            {
              "value": 5,
              "text": "Somewhat Agree"
            },
            {
              "value": 6,
              "text": "Agree"
            },
            {
              "value": 7,
              "text": "Strongly Agree"
            }
          ],
          "rows": [
            {
              "value": "company bother",
              "text": "It usually bothers me when companies ask me for personal information."
            },
            {
              "value": "think twice for permission",
              "text": "When companies ask me for personal information, I sometimes think twice before providing it."
            },
            {
              "value": "so many companies",
              "text": "It bothers me to give personal information to so many companies."
            },
            {
              "value": "too much information",
              "text": "I'm concerned that companies are collecting too much personal information about me."
            },
            {
              "value": "authorization",
              "text": "Companies should not use personal information for any purpose unless it has been authorized by the individuals who provided the information."
            },
            {
              "value": "other reasons",
              "text": "When people give personal information to a company for some reason, the company should never use the information for any other reason."
            },
            {
              "value": "selling information",
              "text": "Companies should never sell the personal information they have about people to other companies."
            },
            {
              "value": "sharing without authorization",
              "text": "Companies should never share personal information with other companies unless it has been authorized by the individuals who provided the information."
            },
            {
              "value": "double check for accuracy",
              "text": "All the personal information companies have about people should be double-checked for accuracy, no matter how much this costs."
            },
            {
              "value": "more steps to accuracy",
              "text": "Companies should take more steps to make sure that the personal information they have about people is accurate."
            },
            {
              "value": "need better procedures",
              "text": "Companies should have better procedures to correct errors in personal information."
            },
            {
              "value": "time and effort to accuracy",
              "text": "Companies should devote more time and effort to verifying the accuracy of the personal information they have about people."
            }
          ]
        }
      ]
    },
    {
      "name": "information",
      "questions": [
        {
          "type": "panel",
          "elements": [
            {
              "type": "html",
              "name": "instructions",
              "html": "<article>     <h1 style='text-align:center'>     Instructions for Updating Your Ad Personalization Settings     </h1>     <div>     <ol type='1'>     <li>     Go to      <a href='https://adssettings.google.com' target='_blank'>     adssettings.google.com     </a>     to open the Google Ad Settings web page. Log in to Google if you are not already. You should be directed to the Ad Settings page as shown below.     </br>     </br>     <img src='../img/settingspage_highlight.png' alt='Ads Settings Page Screenshot' width='30%'>     </li>     </br>     <li>Once you are brought to this web page, you can click on the blue switch (pointed to by the red arrow in the picture above) to tell Google to not personalize ads to you based on your profile.    </li>     </ol>     </div>     </article>"
            }
          ]
		}
	  ]
	},
    {
      "name": "posteval",
      "questions": [
    	{
          "type": "matrix",
          "name": "posteval preference action",
          "isRequired": true,
          "title": "Please indicate if you agree or disagree with the following statements",
          "columns": [
            {
              "value": 1,
              "text": "Strongly Disagree"
            },
            {
              "value": 2,
              "text": "Disagree"
            },
            {
              "value": 3,
              "text": "Somewhat Disagree"
            },
            {
              "value": 4,
              "text": "Neutral"
            },
            {
              "value": 5,
              "text": "Somewhat Agree"
            },
            {
              "value": 6,
              "text": "Agree"
            },
            {
              "value": 7,
              "text": "Strongly Agree"
            }
          ],
          "rows": [
            {
              "value": "post preference",
              "text": "I would like to stop Google from targeting ads based on what it believes about me."
            },
            {
              "value": "post action",
              "text": "I have taken action to stop Google targeting ads based on what it believes about me."
            }
          ]
		},
		{
          "type": "radiogroup",
          "name": "post toggle",
          "isRequired": true,
          "title": "Did you toggle the switch on you ad preferences page to tell Google to stop targeting ads to you?",
          "colCount": 0,
          "choices": ["Yes", "No"]
        }
      ]
    }
  ]
}
